{
  "sections": {
    "main": {
      "type": "template--article",
      "disabled": true,
      "settings": {
        "show_author_name": false,
        "show_dates": false,
        "social_sharing_facebook": true,
        "social_sharing_twitter": true,
        "social_sharing_pinterest": true
      }
    },
    "1663185219a6289754": {
      "type": "text--image-with-text",
      "settings": {
        "image-width": "medium",
        "image": "shopify:\/\/shop_images\/Grassroot_natural_market.jpg",
        "layout": "left",
        "subheading": "",
        "title": "Grassroots Natural market & kitchen",
        "text_block": "<p>Grassroots is a family-owned and operated business that was established in 1968. In 1986 Marla and Meir Puni purchased their modest 1,500 square foot store, in a quaint shopping mall, in South Pasadena, California.<\/p><p><strong>Address: 1119 Fair Oaks Ave South Pasadena, CA 91030<\/strong><\/p><p><strong>Contact:<\/strong> <strong>(626) 799-0156<\/strong><\/p><p><strong>Hours: <\/strong><\/p><p><strong>Monday - Saturday: 9PM - 6PM<\/strong><\/p><p><strong>Sunday: 9PM - 5PM<\/strong><\/p>",
        "button_link": "",
        "button_label": ""
      }
    }
  },
  "order": [
    "main",
    "1663185219a6289754"
  ]
}