{
  "sections": {
    "main": {
      "type": "nutrition-banner",
      "settings": {}
    },
    "nutrition-our-secret": {
      "type": "nutrition-our-secret",
      "settings": {}
    }
  },
  "order": [
    "main",
    "nutrition-our-secret"
  ]
}